{"tracks":{"href":"https://api.spotify.com/v1/search?query=run+to+the+hills&type=track&offset=0&limit=1","items":[{"album":{"album_type":"album","artists":[{"external_urls":{"spotify":"https://open.spotify.com/artist/6mdiAmATAx73kdxrNrnlao"},"href":"https://api.spotify.com/v1/artists/6mdiAmATAx73kdxrNrnlao","id":"6mdiAmATAx73kdxrNrnlao","name":"Iron Maiden","type":"artist","uri":"spotify:artist:6mdiAmATAx73kdxrNrnlao"}],"available_markets":["US"],"external_urls":{"spotify":"https://open.spotify.com/album/33d72N71hl9bXwT4zAcqUy"},"href":"https://api.spotify.com/v1/albums/33d72N71hl9bXwT4zAcqUy","id":"33d72N71hl9bXwT4zAcqUy","images":[{"height":640,"url":"https://i.scdn.co/image/da101f498ff5b026f51146b6d70d3718a49c0348","width":640},{"height":300,"url":"https://i.scdn.co/image/e26b07e098cc61abe2cc8eb09240fe805c560484","width":300},{"height":64,"url":"https://i.scdn.co/image/90774740545c5ecb15f023a51d54c89571441c49","width":64}],"name":"The Number of the Beast (2015 - Remaster)","release_date":"1982-03-22","release_date_precision":"day","total_tracks":8,"type":"album","uri":"spotify:album:33d72N71hl9bXwT4zAcqUy"},"artists":[{"external_urls":{"spotify":"https://open.spotify.com/artist/6mdiAmATAx73kdxrNrnlao"},"href":"https://api.spotify.com/v1/artists/6mdiAmATAx73kdxrNrnlao","id":"6mdiAmATAx73kdxrNrnlao","name":"Iron Maiden","type":"artist","uri":"spotify:artist:6mdiAmATAx73kdxrNrnlao"}],"available_markets":["US"],"disc_number":1,"duration_ms":233506,"explicit":false,"external_ids":{"isrc":"GBCHB1800025"},"external_urls":{"spotify":"https://open.spotify.com/track/0sxYYT48UPkmrDx8p4Hnrl"},"href":"https://api.spotify.com/v1/tracks/0sxYYT48UPkmrDx8p4Hnrl","id":"0sxYYT48UPkmrDx8p4Hnrl","is_local":false,"name":"Run to the Hills - 2015 Remaster","popularity":58,"preview_url":"https://p.scdn.co/mp3-preview/66a6b7102df35ce9e83d29f8f5092ad529eaa14e?cid=91a6bd26bf954f209d83296756a8f386","track_number":6,"type":"track","uri":"spotify:track:0sxYYT48UPkmrDx8p4Hnrl"}],"limit":1,"next":"https://api.spotify.com/v1/search?query=run+to+the+hills&type=track&offset=1&limit=1","offset":0,"previous":null,"total":277}}